Biostat 203B Homework 5
…
Attaching package: 'foreach'

The following objects are masked from 'package:purrr':

    accumulate, when

Loading required package: iterators

1. Data preprocessing and feature engineering.

mimic_icu_cohort <- readRDS("mimiciv_shiny/mimic_icu_cohort.rds")
mimic_icu_cohort 

# A tibble: 73,181 × 33
   subject_id  hadm_id  stay_id first_careunit last_careunit intime             
        <int>    <int>    <int> <fct>          <fct>         <dttm>             
 1   10287015 27614346 37924967 Other          Other         2170-02-09 23:47:23
 2   10765746 28051876 35281441 Other          Other         2156-01-07 09:10:00
 3   11997599 25252737 33179530 Other          Other         2158-01-16 12:31:00
 4   12854615 29306595 38198377 Other          Other         2189-08-22 22:07:51
 5   15260995 26845133 35739203 Other          Other         2138-11-03 23:07:44
 6   15585720 29638262 36722914 Other          Other         2134-05-18 23:27:00
 7   16962213 24281725 38225138 Other          Other         2167-08-18 23:53:00
 8   17326715 23718725 38743306 Other          Other         2166-08-09 02:41:00
 9   17491268 21843002 31844112 Other          Other         2154-02-13 18:11:20
10   18872730 23566640 32829081 Other          Other         2167-10-09 21:10:57
# ℹ 73,171 more rows
# ℹ 27 more variables: los <dbl>, gender <chr>, dod <date>, dischtime <dttm>,
#   admission_type <fct>, admission_location <fct>, discharge_location <fct>,
#   insurance <chr>, language <chr>, marital_status <chr>, race <fct>,
#   hospital_expire_flag <int>, age_intime <int>, hematocrit <dbl>,
#   potassium <dbl>, sodium <dbl>, wbc <dbl>, bicarbonate <dbl>,
#   chloride <dbl>, creatinine <dbl>, glucose <dbl>, …
…
2. Partition, sort and use the seed 203 for the initial data split.

mimic_icu_cohort %>%
  arrange(subject_id, hadm_id, stay_id)

# A tibble: 73,181 × 23
   los_long subject_id  hadm_id  stay_id gender age_intime marital_status race 
   <fct>         <int>    <int>    <int> <chr>       <int> <chr>          <fct>
 1 FALSE      10000032 29079034 39553978 F              52 WIDOWED        WHITE
 2 FALSE      10000980 26913865 39765666 F              76 MARRIED        BLACK
 3 FALSE      10001217 24597018 37067082 F              55 MARRIED        WHITE
 4 FALSE      10001217 27703517 34592300 F              55 MARRIED        WHITE
 5 FALSE      10001725 25563031 31205490 F              46 MARRIED        WHITE
 6 TRUE       10001884 26184834 37510196 F              77 MARRIED        BLACK
 7 FALSE      10002013 23581541 39060235 F              57 SINGLE         Other
 8 FALSE      10002155 20345487 32358465 F              83 MARRIED        WHITE
 9 TRUE       10002155 23822395 33685454 F              81 MARRIED        WHITE
10 TRUE       10002155 28994087 31090461 F              82 MARRIED        WHITE
# ℹ 73,171 more rows
# ℹ 15 more variables: first_careunit <fct>, admission_type <fct>,
#   creatinine <dbl>, wbc <dbl>, glucose <dbl>, chloride <dbl>,
#   hematocrit <dbl>, potassium <dbl>, bicarbonate <dbl>, sodium <dbl>,
#   temperature_fahrenheit <dbl>, respiratory_rate <dbl>,
#   non_invasive_blood_pressure_diastolic <dbl>,
#   non_invasive_blood_pressure_systolic <dbl>, heart_rate <dbl>

mimic_icu_cohort

# A tibble: 73,181 × 23
   los_long subject_id  hadm_id  stay_id gender age_intime marital_status race 
   <fct>         <int>    <int>    <int> <chr>       <int> <chr>          <fct>
 1 FALSE      10287015 27614346 37924967 M              68 MARRIED        Other
 2 FALSE      10765746 28051876 35281441 M              76 MARRIED        BLACK
 3 TRUE       11997599 25252737 33179530 F              91 WIDOWED        WHITE
 4 TRUE       12854615 29306595 38198377 M              81 MARRIED        BLACK
 5 TRUE       15260995 26845133 35739203 F              64 MARRIED        WHITE
 6 TRUE       15585720 29638262 36722914 F              74 MARRIED        WHITE
 7 FALSE      16962213 24281725 38225138 F              60 MARRIED        WHITE
 8 TRUE       17326715 23718725 38743306 F              65 DIVORCED       WHITE
 9 FALSE      17491268 21843002 31844112 M              67 MARRIED        WHITE
10 FALSE      18872730 23566640 32829081 F              66 <NA>           Other
# ℹ 73,171 more rows
# ℹ 15 more variables: first_careunit <fct>, admission_type <fct>,
#   creatinine <dbl>, wbc <dbl>, glucose <dbl>, chloride <dbl>,
#   hematocrit <dbl>, potassium <dbl>, bicarbonate <dbl>, sodium <dbl>,
#   temperature_fahrenheit <dbl>, respiratory_rate <dbl>,
#   non_invasive_blood_pressure_diastolic <dbl>,
#   non_invasive_blood_pressure_systolic <dbl>, heart_rate <dbl>
…
# To read back the objects from the RDS files
# logit_res <- readRDS("logit_res.rds")

logit_res %>%
  collect_metrics() %>%
  print(width = Inf) %>%
  filter(.metric == "roc_auc") %>%
  ggplot(mapping = aes(x = penalty, y = mean, color = factor(mixture))) +
  geom_point() +
  labs(x = "Penalty", y = "CV AUC") +
  scale_x_log10()

# A tibble: 1,000 × 8
      penalty mixture .metric  .estimator  mean     n std_err
        <dbl>   <dbl> <chr>    <chr>      <dbl> <int>   <dbl>
 1 0.000001         0 accuracy binary     0.575     5 0.00260
 2 0.000001         0 roc_auc  binary     0.604     5 0.00239
 3 0.00000123       0 accuracy binary     0.575     5 0.00260
 4 0.00000123       0 roc_auc  binary     0.604     5 0.00239
 5 0.00000152       0 accuracy binary     0.575     5 0.00260
 6 0.00000152       0 roc_auc  binary     0.604     5 0.00239
 7 0.00000187       0 accuracy binary     0.575     5 0.00260
 8 0.00000187       0 roc_auc  binary     0.604     5 0.00239
 9 0.00000231       0 accuracy binary     0.575     5 0.00260
10 0.00000231       0 roc_auc  binary     0.604     5 0.00239
   .config               
   <chr>                 
 1 Preprocessor1_Model001
 2 Preprocessor1_Model001
 3 Preprocessor1_Model002
 4 Preprocessor1_Model002
 5 Preprocessor1_Model003
 6 Preprocessor1_Model003
 7 Preprocessor1_Model004
 8 Preprocessor1_Model004
 9 Preprocessor1_Model005
10 Preprocessor1_Model005
# ℹ 990 more rows
…
# Save tuned models and other objects to an RDS file to save time
# saveRDS(rf_res, "rf_res.rds")

# To read back the objects from the RDS files
rf_res <- readRDS("rf_res.rds")

rf_res %>%
  collect_metrics() %>%
  print(width = Inf) %>%
  filter(.metric == "roc_auc") %>%
  ggplot(mapping = aes(x = trees, y = mean, color = factor(mtry))) +
  geom_point() + 
  labs(x = "Num. of Trees", y = "CV AUC")

# A tibble: 50 × 8
    mtry trees .metric  .estimator  mean     n std_err .config              
   <int> <int> <chr>    <chr>      <dbl> <int>   <dbl> <chr>                
 1     1   100 accuracy binary     0.589     5 0.00415 Preprocessor1_Model01
 2     1   100 roc_auc  binary     0.627     5 0.00358 Preprocessor1_Model01
 3     1   200 accuracy binary     0.592     5 0.00209 Preprocessor1_Model02
 4     1   200 roc_auc  binary     0.630     5 0.00260 Preprocessor1_Model02
 5     1   300 accuracy binary     0.594     5 0.00106 Preprocessor1_Model03
 6     1   300 roc_auc  binary     0.636     5 0.00287 Preprocessor1_Model03
 7     1   400 accuracy binary     0.595     5 0.00377 Preprocessor1_Model04
 8     1   400 roc_auc  binary     0.635     5 0.00378 Preprocessor1_Model04
 9     1   500 accuracy binary     0.594     5 0.00298 Preprocessor1_Model05
10     1   500 roc_auc  binary     0.636     5 0.00356 Preprocessor1_Model05
# ℹ 40 more rows
…
Computational engine: xgboost 

# Define grid
bt_grid <- grid_regular(
  tree_depth(range = c(1L, 5L)),
  learn_rate(range = c(-5, 2),
             trans = log10_trans()),
  levels = c(3, 10)
)

bt_grid

# A tibble: 30 × 2
   tree_depth learn_rate
        <int>      <dbl>
 1          1  0.00001  
 2          3  0.00001  
 3          5  0.00001  
 4          1  0.0000599
 5          3  0.0000599
 6          5  0.0000599
 7          1  0.000359 
 8          3  0.000359 
 9          5  0.000359 
10          1  0.00215  
# ℹ 20 more rows
…
# To read back the objects from the RDS files
bt_res <- readRDS("bt_res.rds")

bt_res %>%
  collect_metrics() %>%
  print(width = Inf) %>%
  filter(.metric == "roc_auc") %>%
  ggplot(mapping = aes(x = learn_rate, y = mean, color = factor(tree_depth))) +
  geom_point() +
  labs(x = "Learning Rate", y = "CV AUC") +
  scale_x_log10()

# A tibble: 60 × 8
   tree_depth learn_rate .metric  .estimator  mean     n std_err
        <int>      <dbl> <chr>    <chr>      <dbl> <int>   <dbl>
 1          1  0.00001   accuracy binary     0.539     5 0.00232
 2          1  0.00001   roc_auc  binary     0.533     5 0.00547
 3          3  0.00001   accuracy binary     0.556     5 0.00429
 4          3  0.00001   roc_auc  binary     0.562     5 0.00270
 5          5  0.00001   accuracy binary     0.563     5 0.00227
 6          5  0.00001   roc_auc  binary     0.579     5 0.00336
 7          1  0.0000599 accuracy binary     0.538     5 0.00505
 8          1  0.0000599 roc_auc  binary     0.555     5 0.00297
 9          3  0.0000599 accuracy binary     0.556     5 0.00607
10          3  0.0000599 roc_auc  binary     0.574     5 0.00666
   .config              
   <chr>                
 1 Preprocessor1_Model01
 2 Preprocessor1_Model01
 3 Preprocessor1_Model02
 4 Preprocessor1_Model02
 5 Preprocessor1_Model03
 6 Preprocessor1_Model03
 7 Preprocessor1_Model04
 8 Preprocessor1_Model04
 9 Preprocessor1_Model05
10 Preprocessor1_Model05
# ℹ 50 more rows
…
cohort_pred

# A tibble: 36,591 × 25
   los_long subject_id  hadm_id  stay_id gender age_intime marital_status race  
   <fct>         <int>    <int>    <int> <chr>       <int> <chr>          <fct> 
 1 FALSE      10287015 27614346 37924967 M              68 MARRIED        Other 
 2 TRUE       12854615 29306595 38198377 M              81 MARRIED        BLACK 
 3 FALSE      16962213 24281725 38225138 F              60 MARRIED        WHITE 
 4 FALSE      17491268 21843002 31844112 M              67 MARRIED        WHITE 
 5 FALSE      18872730 23566640 32829081 F              66 <NA>           Other 
 6 FALSE      19994592 22001973 37963501 F              45 MARRIED        HISPA…
 7 FALSE      14074535 22925441 37015434 F              78 MARRIED        WHITE 
 8 FALSE      16886096 22262505 33076657 F              62 WIDOWED        WHITE 
 9 TRUE       17932276 25018638 37447763 M              52 MARRIED        WHITE 
10 TRUE       12489693 20379263 35263918 M              79 DIVORCED       Other 
# ℹ 36,581 more rows
# ℹ 17 more variables: first_careunit <fct>, admission_type <fct>,
#   creatinine <dbl>, wbc <dbl>, glucose <dbl>, chloride <dbl>,
#   hematocrit <dbl>, potassium <dbl>, bicarbonate <dbl>, sodium <dbl>,
#   temperature_fahrenheit <dbl>, respiratory_rate <dbl>,
#   non_invasive_blood_pressure_diastolic <dbl>,
#   non_invasive_blood_pressure_systolic <dbl>, heart_rate <dbl>, …
…
